%YAML 1.1
%TAG !u! tag:unity3d.com,2011:
--- !u!114 &11400000
MonoBehaviour:
  m_ObjectHideFlags: 0
  m_CorrespondingSourceObject: {fileID: 0}
  m_PrefabInstance: {fileID: 0}
  m_PrefabAsset: {fileID: 0}
  m_GameObject: {fileID: 0}
  m_Enabled: 1
  m_EditorHideFlags: 0
  m_Script: {fileID: 11500000, guid: 3db282f665ab1d8468cd18f08b538e82, type: 3}
  m_Name: axe
  m_EditorClassIdentifier: 
  baseType: 9
  Health: 80
  DamageMin: 3
  DamageMax: 7
  Weight: 4
  swingSpeed: 4
  reach: 2
  twoHanded: 0
  canBleed: 0
  bleedChance: 0
