%YAML 1.1
%TAG !u! tag:unity3d.com,2011:
--- !u!114 &8979107696104254322
MonoBehaviour:
  m_ObjectHideFlags: 0
  m_CorrespondingSourceObject: {fileID: 0}
  m_PrefabInstance: {fileID: 0}
  m_PrefabAsset: {fileID: 0}
  m_GameObject: {fileID: 5116677041249571059}
  m_Enabled: 1
  m_EditorHideFlags: 0
  m_Script: {fileID: 11500000, guid: 8a230d8208051554db19d10d4649b1cb, type: 3}
  m_Name: 
  m_EditorClassIdentifier: 
  STR: 10
  DEX: 10
  INT: 10
  CONST: 10
  SPEED: 1
  ARMOUR: 1
  HEALTH: 100
  MANA: 100
  MOVE: 0
  curSTR: 10
  curDEX: 10
  curINT: 10
  curSPEED: 1
  curARMOUR: 1
  curMOVE: 0
  curMANA: 100
  curHEALTH: 100
  TURNTIMER: 0
  ActorName: actor name
  HPText: {fileID: 0}
  MPText: {fileID: 0}
  BattlefieldDisplay: {fileID: 5116677041500785215}
  DamageOverlay: {fileID: 3779830899012906382}
  curTarget: {fileID: 0}
  resetCurStats: 0
  CharacterInfoPrefab: {fileID: 4190238097586386304, guid: b8eef584931d6d642af152c7d9187d7d, type: 3}
  characterInfo: {fileID: 0}
  HPEmptyCol: {r: 0.6901961, g: 0.003921569, b: 0.003921569, a: 1}
  HPFullCol: {r: 0.9254902, g: 0.8980392, b: 0.8235294, a: 1}
  MPEmptyCol: {r: 0.20392157, g: 0.1882353, b: 0.22745098, a: 1}
  MPFullCol: {r: 0.7019608, g: 0.8784314, b: 1, a: 1}
  SPDEmptyCol: {r: 0.9254902, g: 0.8980392, b: 0.8235294, a: 1}
  SPDFullCol: {r: 0.8784314, g: 1, b: 0.7490196, a: 1}
  TurnTimerUI: {fileID: 0}
--- !u!1001 &4853175430201003132
PrefabInstance:
  m_ObjectHideFlags: 0
  serializedVersion: 2
  m_Modification:
    m_TransformParent: {fileID: 0}
    m_Modifications:
    - target: {fileID: 314099684922301582, guid: 34aa68889ea2c5e4e8c41b014e66553b, type: 3}
      propertyPath: m_LocalPosition.x
      value: 0
      objectReference: {fileID: 0}
    - target: {fileID: 314099684922301582, guid: 34aa68889ea2c5e4e8c41b014e66553b, type: 3}
      propertyPath: m_LocalPosition.y
      value: 0
      objectReference: {fileID: 0}
    - target: {fileID: 314099684922301582, guid: 34aa68889ea2c5e4e8c41b014e66553b, type: 3}
      propertyPath: m_LocalPosition.z
      value: 0
      objectReference: {fileID: 0}
    - target: {fileID: 314099684922301582, guid: 34aa68889ea2c5e4e8c41b014e66553b, type: 3}
      propertyPath: m_LocalRotation.x
      value: 0
      objectReference: {fileID: 0}
    - target: {fileID: 314099684922301582, guid: 34aa68889ea2c5e4e8c41b014e66553b, type: 3}
      propertyPath: m_LocalRotation.y
      value: 0
      objectReference: {fileID: 0}
    - target: {fileID: 314099684922301582, guid: 34aa68889ea2c5e4e8c41b014e66553b, type: 3}
      propertyPath: m_LocalRotation.z
      value: 0
      objectReference: {fileID: 0}
    - target: {fileID: 314099684922301582, guid: 34aa68889ea2c5e4e8c41b014e66553b, type: 3}
      propertyPath: m_LocalRotation.w
      value: 1
      objectReference: {fileID: 0}
    - target: {fileID: 314099684922301582, guid: 34aa68889ea2c5e4e8c41b014e66553b, type: 3}
      propertyPath: m_RootOrder
      value: 0
      objectReference: {fileID: 0}
    - target: {fileID: 314099684922301582, guid: 34aa68889ea2c5e4e8c41b014e66553b, type: 3}
      propertyPath: m_LocalEulerAnglesHint.x
      value: 0
      objectReference: {fileID: 0}
    - target: {fileID: 314099684922301582, guid: 34aa68889ea2c5e4e8c41b014e66553b, type: 3}
      propertyPath: m_LocalEulerAnglesHint.y
      value: 0
      objectReference: {fileID: 0}
    - target: {fileID: 314099684922301582, guid: 34aa68889ea2c5e4e8c41b014e66553b, type: 3}
      propertyPath: m_LocalEulerAnglesHint.z
      value: 0
      objectReference: {fileID: 0}
    - target: {fileID: 314099684922301582, guid: 34aa68889ea2c5e4e8c41b014e66553b, type: 3}
      propertyPath: m_AnchoredPosition.x
      value: -0.6001282
      objectReference: {fileID: 0}
    - target: {fileID: 314099684922301582, guid: 34aa68889ea2c5e4e8c41b014e66553b, type: 3}
      propertyPath: m_AnchoredPosition.y
      value: -63.42419
      objectReference: {fileID: 0}
    - target: {fileID: 314099684922301582, guid: 34aa68889ea2c5e4e8c41b014e66553b, type: 3}
      propertyPath: m_SizeDelta.x
      value: 32.937744
      objectReference: {fileID: 0}
    - target: {fileID: 314099684922301582, guid: 34aa68889ea2c5e4e8c41b014e66553b, type: 3}
      propertyPath: m_SizeDelta.y
      value: 76.44839
      objectReference: {fileID: 0}
    - target: {fileID: 314099684922301582, guid: 34aa68889ea2c5e4e8c41b014e66553b, type: 3}
      propertyPath: m_AnchorMin.x
      value: 0.5
      objectReference: {fileID: 0}
    - target: {fileID: 314099684922301582, guid: 34aa68889ea2c5e4e8c41b014e66553b, type: 3}
      propertyPath: m_AnchorMin.y
      value: 0.5
      objectReference: {fileID: 0}
    - target: {fileID: 314099684922301582, guid: 34aa68889ea2c5e4e8c41b014e66553b, type: 3}
      propertyPath: m_AnchorMax.x
      value: 0.5
      objectReference: {fileID: 0}
    - target: {fileID: 314099684922301582, guid: 34aa68889ea2c5e4e8c41b014e66553b, type: 3}
      propertyPath: m_AnchorMax.y
      value: 0.5
      objectReference: {fileID: 0}
    - target: {fileID: 314099684922301582, guid: 34aa68889ea2c5e4e8c41b014e66553b, type: 3}
      propertyPath: m_Pivot.x
      value: 1
      objectReference: {fileID: 0}
    - target: {fileID: 314099684922301582, guid: 34aa68889ea2c5e4e8c41b014e66553b, type: 3}
      propertyPath: m_Pivot.y
      value: 0
      objectReference: {fileID: 0}
    - target: {fileID: 314099684922301583, guid: 34aa68889ea2c5e4e8c41b014e66553b, type: 3}
      propertyPath: m_Name
      value: Party Actor
      objectReference: {fileID: 0}
    - target: {fileID: 314099685139007052, guid: 34aa68889ea2c5e4e8c41b014e66553b, type: 3}
      propertyPath: m_AnchoredPosition.y
      value: -38.22424
      objectReference: {fileID: 0}
    - target: {fileID: 314099685139007052, guid: 34aa68889ea2c5e4e8c41b014e66553b, type: 3}
      propertyPath: m_AnchoredPosition.x
      value: 16.468657
      objectReference: {fileID: 0}
    - target: {fileID: 314099685139007052, guid: 34aa68889ea2c5e4e8c41b014e66553b, type: 3}
      propertyPath: m_Pivot.x
      value: 1
      objectReference: {fileID: 0}
    - target: {fileID: 314099685139007052, guid: 34aa68889ea2c5e4e8c41b014e66553b, type: 3}
      propertyPath: m_Pivot.y
      value: 0
      objectReference: {fileID: 0}
    - target: {fileID: 314099685139007053, guid: 34aa68889ea2c5e4e8c41b014e66553b, type: 3}
      propertyPath: m_Name
      value: Char Portrait Image
      objectReference: {fileID: 0}
    - target: {fileID: 5879704466889300864, guid: 34aa68889ea2c5e4e8c41b014e66553b, type: 3}
      propertyPath: m_Name
      value: DamageOverlay\
      objectReference: {fileID: 0}
    - target: {fileID: 8587618445850141170, guid: 34aa68889ea2c5e4e8c41b014e66553b, type: 3}
      propertyPath: m_Color.a
      value: 0
      objectReference: {fileID: 0}
    m_RemovedComponents: []
  m_SourcePrefab: {fileID: 100100000, guid: 34aa68889ea2c5e4e8c41b014e66553b, type: 3}
--- !u!1 &5116677041249571059 stripped
GameObject:
  m_CorrespondingSourceObject: {fileID: 314099684922301583, guid: 34aa68889ea2c5e4e8c41b014e66553b, type: 3}
  m_PrefabInstance: {fileID: 4853175430201003132}
  m_PrefabAsset: {fileID: 0}
--- !u!114 &5116677041500785215 stripped
MonoBehaviour:
  m_CorrespondingSourceObject: {fileID: 314099685139007043, guid: 34aa68889ea2c5e4e8c41b014e66553b, type: 3}
  m_PrefabInstance: {fileID: 4853175430201003132}
  m_PrefabAsset: {fileID: 0}
  m_GameObject: {fileID: 0}
  m_Enabled: 1
  m_EditorHideFlags: 0
  m_Script: {fileID: 11500000, guid: fe87c0e1cc204ed48ad3b37840f39efc, type: 3}
  m_Name: 
  m_EditorClassIdentifier: 
--- !u!114 &3779830899012906382 stripped
MonoBehaviour:
  m_CorrespondingSourceObject: {fileID: 8587618445850141170, guid: 34aa68889ea2c5e4e8c41b014e66553b, type: 3}
  m_PrefabInstance: {fileID: 4853175430201003132}
  m_PrefabAsset: {fileID: 0}
  m_GameObject: {fileID: 0}
  m_Enabled: 1
  m_EditorHideFlags: 0
  m_Script: {fileID: 11500000, guid: fe87c0e1cc204ed48ad3b37840f39efc, type: 3}
  m_Name: 
  m_EditorClassIdentifier: 
