%YAML 1.1
%TAG !u! tag:unity3d.com,2011:
--- !u!114 &11400000
MonoBehaviour:
  m_ObjectHideFlags: 0
  m_CorrespondingSourceObject: {fileID: 0}
  m_PrefabInstance: {fileID: 0}
  m_PrefabAsset: {fileID: 0}
  m_GameObject: {fileID: 0}
  m_Enabled: 1
  m_EditorHideFlags: 0
  m_Script: {fileID: 11500000, guid: 79a6467165cd1494983cdd25fa6b66ec, type: 3}
  m_Name: Autumn
  m_EditorClassIdentifier: 
  colours:
  - {r: 0.9254902, g: 0.8392157, b: 0.8235294, a: 1}
  - {r: 0.8666667, g: 0.7647059, b: 0.52156866, a: 1}
  - {r: 0.7529412, g: 0.64705884, b: 0.50980395, a: 1}
  - {r: 0.8509804, g: 0.5686275, b: 0.5254902, a: 1}
  - {r: 0.47058824, g: 0.35686275, b: 0.21568628, a: 1}
  - {r: 0.28235295, g: 0.21176471, b: 0.18431373, a: 1}
  - {r: 0.41568628, g: 0.36078432, b: 0.34901962, a: 1}
  - {r: 0.50980395, g: 0.32941177, b: 0.23921569, a: 1}
