%YAML 1.1
%TAG !u! tag:unity3d.com,2011:
--- !u!114 &11400000
MonoBehaviour:
  m_ObjectHideFlags: 0
  m_CorrespondingSourceObject: {fileID: 0}
  m_PrefabInstance: {fileID: 0}
  m_PrefabAsset: {fileID: 0}
  m_GameObject: {fileID: 0}
  m_Enabled: 1
  m_EditorHideFlags: 0
  m_Script: {fileID: 11500000, guid: 79a6467165cd1494983cdd25fa6b66ec, type: 3}
  m_Name: Summer
  m_EditorClassIdentifier: 
  colours:
  - {r: 0.9529412, g: 0.92941177, b: 0.76862746, a: 1}
  - {r: 0.9490196, g: 0.90588236, b: 0.5568628, a: 1}
  - {r: 0.74509805, g: 0.6862745, b: 0.5019608, a: 1}
  - {r: 0.65882355, g: 0.77254903, b: 0.47058824, a: 1}
  - {r: 0.34509805, g: 0.59607846, b: 0.34509805, a: 1}
  - {r: 0.30588236, g: 0.39607844, b: 0.2509804, a: 1}
  - {r: 0.49019608, g: 0.41960785, b: 0.3882353, a: 1}
  - {r: 0.6784314, g: 0.58431375, b: 0.53333336, a: 1}
