%YAML 1.1
%TAG !u! tag:unity3d.com,2011:
--- !u!114 &11400000
MonoBehaviour:
  m_ObjectHideFlags: 0
  m_CorrespondingSourceObject: {fileID: 0}
  m_PrefabInstance: {fileID: 0}
  m_PrefabAsset: {fileID: 0}
  m_GameObject: {fileID: 0}
  m_Enabled: 1
  m_EditorHideFlags: 0
  m_Script: {fileID: 11500000, guid: c09bed950175aac45abeeb06a91784eb, type: 3}
  m_Name: _short
  m_EditorClassIdentifier: 
  typePrefix: 5
  reachMult: 0.5
  twoHanded: 0
  canBleed: 0
  bleedChance: 0
  agedLevel: 1
  mundane: 1
  martial: 0
  isNegative: 0
  speedMult: 0.7
  weightMult: 0.7
  damageMult: 0.9
  healthMult: 1
