%YAML 1.1
%TAG !u! tag:unity3d.com,2011:
--- !u!114 &11400000
MonoBehaviour:
  m_ObjectHideFlags: 0
  m_CorrespondingSourceObject: {fileID: 0}
  m_PrefabInstance: {fileID: 0}
  m_PrefabAsset: {fileID: 0}
  m_GameObject: {fileID: 0}
  m_Enabled: 1
  m_EditorHideFlags: 0
  m_Script: {fileID: 11500000, guid: f2aece5fc0008b74da06dcd34e9dc260, type: 3}
  m_Name: steel
  m_EditorClassIdentifier: 
  material: 12
  WeightMult: 0.95
  SpeedMult: 0.65
  HealthMult: 1.9
  canRegen: 0
