%YAML 1.1
%TAG !u! tag:unity3d.com,2011:
--- !u!114 &11400000
MonoBehaviour:
  m_ObjectHideFlags: 0
  m_CorrespondingSourceObject: {fileID: 0}
  m_PrefabInstance: {fileID: 0}
  m_PrefabAsset: {fileID: 0}
  m_GameObject: {fileID: 0}
  m_Enabled: 1
  m_EditorHideFlags: 0
  m_Script: {fileID: 11500000, guid: 5a6f78ce59904a844b4516292466b5e8, type: 3}
  m_Name: cold
  m_EditorClassIdentifier: 
  prefix: 18
  DamageMin: 1
  DamageMax: 2
  damageElement: 4
  isNegative: 0
  addsNewDamage: 1
  modifiesExistingDamage: 0
  damageModifier: 1
